{
  "brands":[
    {
      "name":"Тестовый брэнд",
      "campaigns":[
        {
          "id":13,
          "name":"Тестовая кaмпания",
          "commission_strategy":"rev_share",
          "data":[
            {
              "date":"2017-10-11",
              "clicks":1,
              "registrations":1,
              "currencies":[]
            },
            {
              "date":"2017-10-16",
              "clicks":0,
              "registrations":0,
              "currencies":[
                {
                  "code":"USD",
                  "deposits_sum":"0.00",
                  "first_deposits_count":0,
                  "ngr":"-118.00",
                  "partner_income":"0.00"
                }
              ]
            },
            {
              "date":"2017-10-20",
              "clicks":0,
              "registrations":0,
              "currencies":[
                {
                  "code":"USD",
                  "deposits_sum":"0.00",
                  "first_deposits_count":0,
                  "ngr":"23.60",
                  "partner_income":"2.36"
                }
              ]
            },
            {
              "date":"2017-10-31",
              "clicks":7,
              "registrations":1,
              "currencies":[
                {
                  "code":"EUR",
                  "deposits_sum":"400.00",
                  "first_deposits_count":1,
                  "ngr":"80.00",
                  "partner_income":"8.00"
                },
                {
                  "code":"USD",
                  "deposits_sum":"150.00",
                  "first_deposits_count":1,
                  "ngr":"29.05",
                  "partner_income":"2.90"
                }
              ]
            },
            {
              "date":"2017-11-06",
              "clicks":0,
              "registrations":0,
              "currencies":[
                {
                  "code":"EUR",
                  "deposits_sum":"0.00",
                  "first_deposits_count":0,
                  "ngr":"-140.00",
                  "partner_income":"0.00"
                }
              ]
            },
            {
              "date":"2017-11-08",
              "clicks":0,
              "registrations":0,
              "currencies":[
                {
                  "code":"EUR",
                  "deposits_sum":"0.00",
                  "first_deposits_count":0,
                  "ngr":"4.00",
                  "partner_income":"0.40"
                }
              ]
            },
            {
              "date":"2017-11-09",
              "clicks":0,
              "registrations":0,
              "currencies":[
                {
                  "code":"EUR",
                  "deposits_sum":"0.00",
                  "first_deposits_count":0,
                  "ngr":"4.00",
                  "partner_income":"0.40"
                }
              ]
            },
            {
              "date":"2017-11-10",
              "clicks":0,
              "registrations":0,
              "currencies":[
                {
                  "code":"EUR",
                  "deposits_sum":"0.00",
                  "first_deposits_count":0,
                  "ngr":"20.00",
                  "partner_income":"2.00"
                }
              ]
            }
          ]
        }
      ]
    },
  ]
}
